Vivado/COUNT4/COUNT4.sim/sim_1/behav/simulate.log
Vivado Simulator 2016.4
Time resolution is 1 ps
                   0 clk=0 reset=0 count=0000
                  50 clk=1 reset=0 count=0000
                 100 clk=0 reset=1 count=0000
                 150 clk=1 reset=1 count=0001
                 200 clk=0 reset=1 count=0001
                 250 clk=1 reset=1 count=0010
                 300 clk=0 reset=1 count=0010
                 350 clk=1 reset=1 count=0011
                 400 clk=0 reset=1 count=0011
                 450 clk=1 reset=1 count=0100
                 500 clk=0 reset=1 count=0100
                 550 clk=1 reset=1 count=0101
                 600 clk=0 reset=1 count=0101
                 650 clk=1 reset=1 count=0110
                 700 clk=0 reset=1 count=0110
                 750 clk=1 reset=1 count=0111
                 800 clk=0 reset=1 count=0111
                 850 clk=1 reset=1 count=1000
                 900 clk=0 reset=1 count=1000
                 950 clk=1 reset=1 count=1001
                1000 clk=0 reset=1 count=1001
                1050 clk=1 reset=1 count=1010
                1100 clk=0 reset=1 count=1010
                1150 clk=1 reset=1 count=1011
                1200 clk=0 reset=1 count=1011
                1250 clk=1 reset=1 count=1100
                1300 clk=0 reset=1 count=1100
                1350 clk=1 reset=1 count=1101
                1400 clk=0 reset=1 count=1101
                1450 clk=1 reset=1 count=1110
                1500 clk=0 reset=1 count=1110
                1550 clk=1 reset=1 count=1111
                1600 clk=0 reset=1 count=1111
                1650 clk=1 reset=1 count=0000
                1700 clk=0 reset=1 count=0000
                1750 clk=1 reset=1 count=0001
                1800 clk=0 reset=1 count=0001
                1850 clk=1 reset=1 count=0010
                1900 clk=0 reset=1 count=0010
                1950 clk=1 reset=1 count=0011
                2000 clk=0 reset=1 count=0011
                2050 clk=1 reset=1 count=0100
                2100 clk=0 reset=0 count=0000
                2150 clk=1 reset=0 count=0000
                2200 clk=0 reset=1 count=0000
                2250 clk=1 reset=1 count=0001
                2300 clk=0 reset=1 count=0001
                2350 clk=1 reset=1 count=0010
                2400 clk=0 reset=1 count=0010
                2450 clk=1 reset=1 count=0011
                2500 clk=0 reset=1 count=0011
                2550 clk=1 reset=1 count=0100
                2600 clk=0 reset=1 count=0100
                2650 clk=1 reset=1 count=0101
                2700 clk=0 reset=1 count=0101
                2750 clk=1 reset=1 count=0110
                2800 clk=0 reset=1 count=0110
                2850 clk=1 reset=1 count=0111
                2900 clk=0 reset=1 count=0111
                2950 clk=1 reset=1 count=1000
                3000 clk=0 reset=1 count=1000
                3050 clk=1 reset=1 count=1001
                3100 clk=0 reset=1 count=1001
                3150 clk=1 reset=1 count=1010
                3200 clk=0 reset=1 count=1010
                3250 clk=1 reset=1 count=1011
                3300 clk=0 reset=1 count=1011
                3350 clk=1 reset=1 count=1100
                3400 clk=0 reset=1 count=1100
                3450 clk=1 reset=1 count=1101
                3500 clk=0 reset=1 count=1101
                3550 clk=1 reset=1 count=1110
                3600 clk=0 reset=1 count=1110
                3650 clk=1 reset=1 count=1111
                3700 clk=0 reset=1 count=1111
                3750 clk=1 reset=1 count=0000
                3800 clk=0 reset=1 count=0000
                3850 clk=1 reset=1 count=0001
                3900 clk=0 reset=1 count=0001
                3950 clk=1 reset=1 count=0010
                4000 clk=0 reset=1 count=0010
                4050 clk=1 reset=1 count=0011
                4100 clk=0 reset=1 count=0011
                4150 clk=1 reset=1 count=0100
$finish called at time : 4200 ns : File "Z:/Vivado/COUNT4/T_COUNT4.v" Line 18
                4200 clk=0 reset=1 count=0100
                4250 clk=1 reset=1 count=0101
                4300 clk=0 reset=1 count=0101
                4350 clk=1 reset=1 count=0110
                4400 clk=0 reset=1 count=0110
                4450 clk=1 reset=1 count=0111
                4500 clk=0 reset=1 count=0111
                4550 clk=1 reset=1 count=1000
                4600 clk=0 reset=1 count=1000
                4650 clk=1 reset=1 count=1001
                4700 clk=0 reset=1 count=1001
                4750 clk=1 reset=1 count=1010
                4800 clk=0 reset=1 count=1010
                4850 clk=1 reset=1 count=1011
                4900 clk=0 reset=1 count=1011
                4950 clk=1 reset=1 count=1100
                5000 clk=0 reset=1 count=1100
                5050 clk=1 reset=1 count=1101
                5100 clk=0 reset=1 count=1101
                5150 clk=1 reset=1 count=1110
                5200 clk=0 reset=1 count=1110
                5250 clk=1 reset=1 count=1111
                5300 clk=0 reset=1 count=1111
                5350 clk=1 reset=1 count=0000
                5400 clk=0 reset=1 count=0000
                5450 clk=1 reset=1 count=0001
                5500 clk=0 reset=1 count=0001
                5550 clk=1 reset=1 count=0010
                5600 clk=0 reset=1 count=0010
                5650 clk=1 reset=1 count=0011
                5700 clk=0 reset=1 count=0011
                5750 clk=1 reset=1 count=0100
                5800 clk=0 reset=1 count=0100
                5850 clk=1 reset=1 count=0101
                5900 clk=0 reset=1 count=0101
                5950 clk=1 reset=1 count=0110
                6000 clk=0 reset=1 count=0110
                6050 clk=1 reset=1 count=0111
                6100 clk=0 reset=1 count=0111
                6150 clk=1 reset=1 count=1000
                6200 clk=0 reset=1 count=1000
                6250 clk=1 reset=1 count=1001
                6300 clk=0 reset=1 count=1001
                6350 clk=1 reset=1 count=1010
                6400 clk=0 reset=1 count=1010
                6450 clk=1 reset=1 count=1011
                6500 clk=0 reset=1 count=1011
                6550 clk=1 reset=1 count=1100
                6600 clk=0 reset=1 count=1100
                6650 clk=1 reset=1 count=1101
                6700 clk=0 reset=1 count=1101
                6750 clk=1 reset=1 count=1110
                6800 clk=0 reset=1 count=1110
                6850 clk=1 reset=1 count=1111
                6900 clk=0 reset=1 count=1111
                6950 clk=1 reset=1 count=0000
                7000 clk=0 reset=1 count=0000
                7050 clk=1 reset=1 count=0001
                7100 clk=0 reset=1 count=0001
                7150 clk=1 reset=1 count=0010
                7200 clk=0 reset=1 count=0010
                7250 clk=1 reset=1 count=0011
                7300 clk=0 reset=1 count=0011
                7350 clk=1 reset=1 count=0100
                7400 clk=0 reset=1 count=0100
                7450 clk=1 reset=1 count=0101
                7500 clk=0 reset=1 count=0101
                7550 clk=1 reset=1 count=0110
                7600 clk=0 reset=1 count=0110
                7650 clk=1 reset=1 count=0111
                7700 clk=0 reset=1 count=0111
                7750 clk=1 reset=1 count=1000
                7800 clk=0 reset=1 count=1000
                7850 clk=1 reset=1 count=1001
                7900 clk=0 reset=1 count=1001
                7950 clk=1 reset=1 count=1010
                8000 clk=0 reset=1 count=1010
                8050 clk=1 reset=1 count=1011
                8100 clk=0 reset=1 count=1011
                8150 clk=1 reset=1 count=1100
                8200 clk=0 reset=1 count=1100
                8250 clk=1 reset=1 count=1101
                8300 clk=0 reset=1 count=1101
                8350 clk=1 reset=1 count=1110
                8400 clk=0 reset=1 count=1110
                8450 clk=1 reset=1 count=1111
                8500 clk=0 reset=1 count=1111
                8550 clk=1 reset=1 count=0000
                8600 clk=0 reset=1 count=0000
                8650 clk=1 reset=1 count=0001
                8700 clk=0 reset=1 count=0001
                8750 clk=1 reset=1 count=0010
                8800 clk=0 reset=1 count=0010
                8850 clk=1 reset=1 count=0011
                8900 clk=0 reset=1 count=0011
                8950 clk=1 reset=1 count=0100
                9000 clk=0 reset=1 count=0100
                9050 clk=1 reset=1 count=0101
                9100 clk=0 reset=1 count=0101
                9150 clk=1 reset=1 count=0110
                9200 clk=0 reset=1 count=0110
                9250 clk=1 reset=1 count=0111
                9300 clk=0 reset=1 count=0111
                9350 clk=1 reset=1 count=1000
                9400 clk=0 reset=1 count=1000
                9450 clk=1 reset=1 count=1001
                9500 clk=0 reset=1 count=1001
                9550 clk=1 reset=1 count=1010
                9600 clk=0 reset=1 count=1010
                9650 clk=1 reset=1 count=1011
                9700 clk=0 reset=1 count=1011
                9750 clk=1 reset=1 count=1100
                9800 clk=0 reset=1 count=1100
                9850 clk=1 reset=1 count=1101
                9900 clk=0 reset=1 count=1101
                9950 clk=1 reset=1 count=1110
               10000 clk=0 reset=1 count=1110
               10050 clk=1 reset=1 count=1111
               10100 clk=0 reset=1 count=1111
               10150 clk=1 reset=1 count=0000
               10200 clk=0 reset=1 count=0000
               10250 clk=1 reset=1 count=0001
               10300 clk=0 reset=1 count=0001
               10350 clk=1 reset=1 count=0010
               10400 clk=0 reset=1 count=0010
               10450 clk=1 reset=1 count=0011
               10500 clk=0 reset=1 count=0011
               10550 clk=1 reset=1 count=0100
               10600 clk=0 reset=1 count=0100
               10650 clk=1 reset=1 count=0101
               10700 clk=0 reset=1 count=0101
               10750 clk=1 reset=1 count=0110
               10800 clk=0 reset=1 count=0110
               10850 clk=1 reset=1 count=0111
               10900 clk=0 reset=1 count=0111
               10950 clk=1 reset=1 count=1000
               11000 clk=0 reset=1 count=1000
               11050 clk=1 reset=1 count=1001
               11100 clk=0 reset=1 count=1001
               11150 clk=1 reset=1 count=1010
               11200 clk=0 reset=1 count=1010
               11250 clk=1 reset=1 count=1011
               11300 clk=0 reset=1 count=1011
               11350 clk=1 reset=1 count=1100
               11400 clk=0 reset=1 count=1100
               11450 clk=1 reset=1 count=1101
               11500 clk=0 reset=1 count=1101
               11550 clk=1 reset=1 count=1110
               11600 clk=0 reset=1 count=1110
               11650 clk=1 reset=1 count=1111
               11700 clk=0 reset=1 count=1111
               11750 clk=1 reset=1 count=0000
               11800 clk=0 reset=1 count=0000
               11850 clk=1 reset=1 count=0001
               11900 clk=0 reset=1 count=0001
               11950 clk=1 reset=1 count=0010
               12000 clk=0 reset=1 count=0010
               12050 clk=1 reset=1 count=0011
               12100 clk=0 reset=1 count=0011
               12150 clk=1 reset=1 count=0100
               12200 clk=0 reset=1 count=0100
               12250 clk=1 reset=1 count=0101
               12300 clk=0 reset=1 count=0101
               12350 clk=1 reset=1 count=0110
               12400 clk=0 reset=1 count=0110
               12450 clk=1 reset=1 count=0111
               12500 clk=0 reset=1 count=0111
               12550 clk=1 reset=1 count=1000
               12600 clk=0 reset=1 count=1000
               12650 clk=1 reset=1 count=1001
               12700 clk=0 reset=1 count=1001
               12750 clk=1 reset=1 count=1010
               12800 clk=0 reset=1 count=1010
               12850 clk=1 reset=1 count=1011
               12900 clk=0 reset=1 count=1011
               12950 clk=1 reset=1 count=1100
               13000 clk=0 reset=1 count=1100
               13050 clk=1 reset=1 count=1101
               13100 clk=0 reset=1 count=1101
               13150 clk=1 reset=1 count=1110
               13200 clk=0 reset=1 count=1110
               13250 clk=1 reset=1 count=1111
               13300 clk=0 reset=1 count=1111
               13350 clk=1 reset=1 count=0000
               13400 clk=0 reset=1 count=0000
               13450 clk=1 reset=1 count=0001
               13500 clk=0 reset=1 count=0001
               13550 clk=1 reset=1 count=0010
               13600 clk=0 reset=1 count=0010
               13650 clk=1 reset=1 count=0011
               13700 clk=0 reset=1 count=0011
               13750 clk=1 reset=1 count=0100
               13800 clk=0 reset=1 count=0100
               13850 clk=1 reset=1 count=0101
               13900 clk=0 reset=1 count=0101
               13950 clk=1 reset=1 count=0110
               14000 clk=0 reset=1 count=0110
               14050 clk=1 reset=1 count=0111
               14100 clk=0 reset=1 count=0111
               14150 clk=1 reset=1 count=1000
               14200 clk=0 reset=1 count=1000
                   0 clk=0 reset=0 count=0000
                  50 clk=1 reset=0 count=0000
                 100 clk=0 reset=1 count=0000
                 150 clk=1 reset=1 count=0001
                 200 clk=0 reset=1 count=0001
                 250 clk=1 reset=1 count=0010
                 300 clk=0 reset=1 count=0010
                 350 clk=1 reset=1 count=0011
                 400 clk=0 reset=1 count=0011
                 450 clk=1 reset=1 count=0100
                 500 clk=0 reset=1 count=0100
                 550 clk=1 reset=1 count=0101
                 600 clk=0 reset=1 count=0101
                 650 clk=1 reset=1 count=0110
                 700 clk=0 reset=1 count=0110
                 750 clk=1 reset=1 count=0111
                 800 clk=0 reset=1 count=0111
                 850 clk=1 reset=1 count=1000
                 900 clk=0 reset=1 count=1000
                 950 clk=1 reset=1 count=1001
                1000 clk=0 reset=1 count=1001
                1050 clk=1 reset=1 count=1010
                1100 clk=0 reset=1 count=1010
                1150 clk=1 reset=1 count=1011
                1200 clk=0 reset=1 count=1011
                1250 clk=1 reset=1 count=1100
                1300 clk=0 reset=1 count=1100
                1350 clk=1 reset=1 count=1101
                1400 clk=0 reset=1 count=1101
                1450 clk=1 reset=1 count=1110
                1500 clk=0 reset=1 count=1110
                1550 clk=1 reset=1 count=1111
                1600 clk=0 reset=1 count=1111
                1650 clk=1 reset=1 count=0000
                1700 clk=0 reset=1 count=0000
                1750 clk=1 reset=1 count=0001
                1800 clk=0 reset=1 count=0001
                1850 clk=1 reset=1 count=0010
                1900 clk=0 reset=1 count=0010
                1950 clk=1 reset=1 count=0011
                2000 clk=0 reset=1 count=0011
                2050 clk=1 reset=1 count=0100
                2100 clk=0 reset=0 count=0000
                2150 clk=1 reset=0 count=0000
                2200 clk=0 reset=1 count=0000
                2250 clk=1 reset=1 count=0001
                2300 clk=0 reset=1 count=0001
                2350 clk=1 reset=1 count=0010
                2400 clk=0 reset=1 count=0010
                2450 clk=1 reset=1 count=0011
                2500 clk=0 reset=1 count=0011
                2550 clk=1 reset=1 count=0100
                2600 clk=0 reset=1 count=0100
                2650 clk=1 reset=1 count=0101
                2700 clk=0 reset=1 count=0101
                2750 clk=1 reset=1 count=0110
                2800 clk=0 reset=1 count=0110
                2850 clk=1 reset=1 count=0111
                2900 clk=0 reset=1 count=0111
                2950 clk=1 reset=1 count=1000
                3000 clk=0 reset=1 count=1000
                3050 clk=1 reset=1 count=1001
                3100 clk=0 reset=1 count=1001
                3150 clk=1 reset=1 count=1010
                3200 clk=0 reset=1 count=1010
                3250 clk=1 reset=1 count=1011
                3300 clk=0 reset=1 count=1011
                3350 clk=1 reset=1 count=1100
                3400 clk=0 reset=1 count=1100
                3450 clk=1 reset=1 count=1101
                3500 clk=0 reset=1 count=1101
                3550 clk=1 reset=1 count=1110
                3600 clk=0 reset=1 count=1110
                3650 clk=1 reset=1 count=1111
                3700 clk=0 reset=1 count=1111
                3750 clk=1 reset=1 count=0000
                3800 clk=0 reset=1 count=0000
                3850 clk=1 reset=1 count=0001
                3900 clk=0 reset=1 count=0001
                3950 clk=1 reset=1 count=0010
                4000 clk=0 reset=1 count=0010
                4050 clk=1 reset=1 count=0011
                4100 clk=0 reset=1 count=0011
                4150 clk=1 reset=1 count=0100
$finish called at time : 4200 ns : File "Z:/Vivado/COUNT4/T_COUNT4.v" Line 18
