Vivado/UPDOWN_7SEG/UPDOWN_7SEG.sim/sim_1/behav/simulate.log
Vivado Simulator 2016.4
Time resolution is 1 ps
                   0 clk=0 reset=0 count=0000
                  50 clk=1 reset=0 count=0000
                 100 clk=0 reset=1 count=0000
                 150 clk=1 reset=1 count=0000
                 200 clk=0 reset=1 count=0000
                 250 clk=1 reset=1 count=0000
                 300 clk=0 reset=1 count=0000
                 350 clk=1 reset=1 count=0000
                 400 clk=0 reset=1 count=0000
                 450 clk=1 reset=1 count=0001
                 500 clk=0 reset=1 count=0001
                 550 clk=1 reset=1 count=0001
                 600 clk=0 reset=1 count=0001
                 650 clk=1 reset=1 count=0001
                 700 clk=0 reset=1 count=0001
                 750 clk=1 reset=1 count=0001
                 800 clk=0 reset=1 count=0001
                 850 clk=1 reset=1 count=0010
                 900 clk=0 reset=1 count=0010
                 950 clk=1 reset=1 count=0010
                1000 clk=0 reset=1 count=0010
                1050 clk=1 reset=1 count=0010
                1100 clk=0 reset=1 count=0010
                1150 clk=1 reset=1 count=0010
                1200 clk=0 reset=1 count=0010
                1250 clk=1 reset=1 count=0011
                1300 clk=0 reset=1 count=0011
                1350 clk=1 reset=1 count=0011
                1400 clk=0 reset=1 count=0011
                1450 clk=1 reset=1 count=0011
                1500 clk=0 reset=1 count=0011
                1550 clk=1 reset=1 count=0011
                1600 clk=0 reset=1 count=0011
                1650 clk=1 reset=1 count=0100
                1700 clk=0 reset=1 count=0100
                1750 clk=1 reset=1 count=0100
                1800 clk=0 reset=1 count=0100
                1850 clk=1 reset=1 count=0100
                1900 clk=0 reset=1 count=0100
                1950 clk=1 reset=1 count=0100
                2000 clk=0 reset=1 count=0100
                2050 clk=1 reset=1 count=0101
                2100 clk=0 reset=1 count=0101
                2150 clk=1 reset=1 count=0101
                2200 clk=0 reset=1 count=0101
                2250 clk=1 reset=1 count=0101
                2300 clk=0 reset=1 count=0101
                2350 clk=1 reset=1 count=0101
                2400 clk=0 reset=1 count=0101
                2450 clk=1 reset=1 count=0110
                2500 clk=0 reset=1 count=0110
                2550 clk=1 reset=1 count=0110
                2600 clk=0 reset=1 count=0110
                2650 clk=1 reset=1 count=0110
                2700 clk=0 reset=1 count=0110
                2750 clk=1 reset=1 count=0110
                2800 clk=0 reset=1 count=0110
                2850 clk=1 reset=1 count=0111
                2900 clk=0 reset=1 count=0111
                2950 clk=1 reset=1 count=0111
                3000 clk=0 reset=1 count=0111
                3050 clk=1 reset=1 count=0111
                3100 clk=0 reset=1 count=0111
                3150 clk=1 reset=1 count=0111
                3200 clk=0 reset=1 count=0111
                3250 clk=1 reset=1 count=1000
                3300 clk=0 reset=1 count=1000
                3350 clk=1 reset=1 count=1000
                3400 clk=0 reset=1 count=1000
                3450 clk=1 reset=1 count=1000
                3500 clk=0 reset=1 count=1000
                3550 clk=1 reset=1 count=1000
                3600 clk=0 reset=1 count=1000
                3650 clk=1 reset=1 count=1001
                3700 clk=0 reset=1 count=1001
                3750 clk=1 reset=1 count=1001
                3800 clk=0 reset=1 count=1001
                3850 clk=1 reset=1 count=1001
                3900 clk=0 reset=1 count=1001
                3950 clk=1 reset=1 count=1001
                4000 clk=0 reset=1 count=1001
                4050 clk=1 reset=1 count=0000
                4100 clk=0 reset=1 count=0000
                4150 clk=1 reset=1 count=0000
                4200 clk=0 reset=1 count=0000
                4250 clk=1 reset=1 count=0000
                4300 clk=0 reset=1 count=0000
                4350 clk=1 reset=1 count=0000
                4400 clk=0 reset=1 count=0000
                4450 clk=1 reset=1 count=0001
                4500 clk=0 reset=1 count=0001
                4550 clk=1 reset=1 count=0001
                4600 clk=0 reset=1 count=0001
                4650 clk=1 reset=1 count=0001
                4700 clk=0 reset=1 count=0001
                4750 clk=1 reset=1 count=0001
                4800 clk=0 reset=1 count=0001
                4850 clk=1 reset=1 count=0010
                4900 clk=0 reset=1 count=0010
                4950 clk=1 reset=1 count=0010
                5000 clk=0 reset=1 count=0010
                5050 clk=1 reset=1 count=0010
                5100 clk=0 reset=1 count=0010
                5150 clk=1 reset=1 count=0010
                5200 clk=0 reset=1 count=0010
                5250 clk=1 reset=1 count=0011
                5300 clk=0 reset=1 count=0011
                5350 clk=1 reset=1 count=0011
                5400 clk=0 reset=1 count=0011
                5450 clk=1 reset=1 count=0011
                5500 clk=0 reset=1 count=0011
                5550 clk=1 reset=1 count=0011
                5600 clk=0 reset=1 count=0011
                5650 clk=1 reset=1 count=0100
                5700 clk=0 reset=1 count=0100
                5750 clk=1 reset=1 count=0100
                5800 clk=0 reset=1 count=0100
                5850 clk=1 reset=1 count=0100
                5900 clk=0 reset=1 count=0100
                5950 clk=1 reset=1 count=0100
                6000 clk=0 reset=1 count=0100
                6050 clk=1 reset=1 count=0101
                6100 clk=0 reset=1 count=0101
                6150 clk=1 reset=1 count=0101
                6200 clk=0 reset=1 count=0101
                6250 clk=1 reset=1 count=0101
                6300 clk=0 reset=1 count=0101
                6350 clk=1 reset=1 count=0101
                6400 clk=0 reset=1 count=0101
                6450 clk=1 reset=1 count=0100
                6500 clk=0 reset=1 count=0100
                6550 clk=1 reset=1 count=0100
                6600 clk=0 reset=1 count=0100
                6650 clk=1 reset=1 count=0100
                6700 clk=0 reset=1 count=0100
                6750 clk=1 reset=1 count=0100
                6800 clk=0 reset=1 count=0100
                6850 clk=1 reset=1 count=0011
                6900 clk=0 reset=1 count=0011
                6950 clk=1 reset=1 count=0011
                7000 clk=0 reset=1 count=0011
                7050 clk=1 reset=1 count=0011
                7100 clk=0 reset=1 count=0011
                7150 clk=1 reset=1 count=0011
                7200 clk=0 reset=1 count=0011
                7250 clk=1 reset=1 count=0010
                7300 clk=0 reset=1 count=0010
                7350 clk=1 reset=1 count=0010
                7400 clk=0 reset=1 count=0010
                7450 clk=1 reset=1 count=0010
                7500 clk=0 reset=1 count=0010
                7550 clk=1 reset=1 count=0010
                7600 clk=0 reset=1 count=0010
                7650 clk=1 reset=1 count=0001
                7700 clk=0 reset=1 count=0001
                7750 clk=1 reset=1 count=0001
                7800 clk=0 reset=1 count=0001
                7850 clk=1 reset=1 count=0001
                7900 clk=0 reset=1 count=0001
                7950 clk=1 reset=1 count=0001
                8000 clk=0 reset=1 count=0001
                8050 clk=1 reset=1 count=0000
                8100 clk=0 reset=1 count=0000
                8150 clk=1 reset=1 count=0000
                8200 clk=0 reset=1 count=0000
                8250 clk=1 reset=1 count=0000
                8300 clk=0 reset=1 count=0000
                8350 clk=1 reset=1 count=0000
                8400 clk=0 reset=1 count=0000
                8450 clk=1 reset=1 count=1001
                8500 clk=0 reset=1 count=1001
                8550 clk=1 reset=1 count=1001
                8600 clk=0 reset=1 count=1001
                8650 clk=1 reset=1 count=1001
                8700 clk=0 reset=1 count=1001
                8750 clk=1 reset=1 count=1001
                8800 clk=0 reset=1 count=1001
                8850 clk=1 reset=1 count=1000
                8900 clk=0 reset=1 count=1000
                8950 clk=1 reset=1 count=1000
                9000 clk=0 reset=1 count=1000
                9050 clk=1 reset=1 count=1000
                9100 clk=0 reset=1 count=1000
                9150 clk=1 reset=1 count=1000
                9200 clk=0 reset=1 count=1000
                9250 clk=1 reset=1 count=0111
                9300 clk=0 reset=1 count=0111
                9350 clk=1 reset=1 count=0111
                9400 clk=0 reset=1 count=0111
                9450 clk=1 reset=1 count=0111
                9500 clk=0 reset=1 count=0111
                9550 clk=1 reset=1 count=0111
                9600 clk=0 reset=1 count=0111
                9650 clk=1 reset=1 count=0110
                9700 clk=0 reset=1 count=0110
                9750 clk=1 reset=1 count=0110
                9800 clk=0 reset=1 count=0110
                9850 clk=1 reset=1 count=0110
                9900 clk=0 reset=1 count=0110
                9950 clk=1 reset=1 count=0110
               10000 clk=0 reset=1 count=0110
               10050 clk=1 reset=1 count=0101
$finish called at time : 10100 ns : File "Z:/github/Vivado/UPDOWN_7SEG/T_UPDOWN10_2.v" Line 19
